{
    ".DJI": {
        "Ticker": ".DJI",
        "Price": 27445,
        "Changes": 42.8711,
        "updated_at": "2019-11-04 13:01:55",
        "Name": "Dow Jones"
    },
    ".IXIC": {
        "Ticker": ".IXIC",
        "Price": 7963,
        "Changes": -52,
        "updated_at": "2019-08-30 16:01:14",
        "Name": "Nasdaq"
    },
    ".INX": {
        "Ticker": ".INX",
        "Price": 3079.21,
        "Changes": 0.25,
        "updated_at": "2019-11-04 13:02:01",
        "Name": "S&P 500"
    },
    "%5EFCHI": {
        "Ticker": "%5EFCHI",
        "Price": 5824.3,
        "Changes": 35.94,
        "updated_at": "2019-11-04 12:01:57",
        "Name": "CAC 40"
    },
    "%5ERUI": {
        "Ticker": "%5ERUI",
        "Price": 1700.14,
        "Changes": 1.4789,
        "updated_at": "2019-11-04 13:02:14",
        "Name": "Russell 1000 Index"
    },
    "%5ERUT": {
        "Ticker": "%5ERUT",
        "Price": 1596.33,
        "Changes": -0.771,
        "updated_at": "2019-11-04 13:02:20",
        "Name": "Russell 2000 Index"
    },
    "%5EPSE": {
        "Ticker": "%5EPSE",
        "Price": 3559.99,
        "Changes": 10.5005,
        "updated_at": "2019-11-04 13:02:27",
        "Name": "NYSE Arca Technology 100 Index"
    },
    "%5EDJT": {
        "Ticker": "%5EDJT",
        "Price": 10853,
        "Changes": 42.0693,
        "updated_at": "2019-11-04 12:34:19",
        "Name": "Dow Jones Transportation Average"
    },
    "%5EIXCO": {
        "Ticker": "%5EIXCO",
        "Price": 5415.07,
        "Changes": -4.5117,
        "updated_at": "2019-11-04 12:34:25",
        "Name": "NASDAQ Computer Index"
    },
    "%5EMID": {
        "Ticker": "%5EMID",
        "Price": 1990.93,
        "Changes": -4.2999,
        "updated_at": "2019-11-04 12:34:32",
        "Name": "S&P 400 Mid Cap Index"
    },
    "%5ENDX": {
        "Ticker": "%5ENDX",
        "Price": 8204.92,
        "Changes": -14.0048,
        "updated_at": "2019-11-04 11:02:31",
        "Name": "NASDAQ 100 Index"
    },
    "%5ENYA": {
        "Ticker": "%5ENYA",
        "Price": 13283.4,
        "Changes": 52.2373,
        "updated_at": "2019-11-01 15:34:06",
        "Name": "NYSE Composite Index"
    },
    "%5EOEX": {
        "Ticker": "%5EOEX",
        "Price": 1360.11,
        "Changes": 5.51,
        "updated_at": "2019-11-01 11:02:08",
        "Name": "S&P 100 Index"
    },
    "%5ESOX": {
        "Ticker": "%5ESOX",
        "Price": 1678.27,
        "Changes": 10.9849,
        "updated_at": "2019-11-01 15:34:19",
        "Name": "PHLX Semiconductor Index"
    },
    "%5EXAU": {
        "Ticker": "%5EXAU",
        "Price": 94.7546,
        "Changes": -0.1905,
        "updated_at": "2019-11-01 11:02:21",
        "Name": "PHLX Gold/Silver Index"
    },
    "%5EXAX": {
        "Ticker": "%5EXAX",
        "Price": 2493.94,
        "Changes": 48.5833,
        "updated_at": "2019-11-01 15:34:31",
        "Name": "NYSE American Composite Index"
    },
    "%5EXMI": {
        "Ticker": "%5EXMI",
        "Price": 2692.88,
        "Changes": 18.4915,
        "updated_at": "2019-11-01 11:02:33",
        "Name": "NYSE Arca Major Market Index"
    }
}